<?xml version="1.0" encoding="UTF-8" standalone="no" ?>
<!DOCTYPE svg PUBLIC "-//W3C//DTD SVG 1.1//EN" "http://www.w3.org/Graphics/SVG/1.1/DTD/svg11.dtd">
<svg xmlns="http://www.w3.org/2000/svg" xmlns:xlink="http://www.w3.org/1999/xlink" version="1.1" width="1000" height="1000" viewBox="0 0 104 174" xml:space="preserve">
<desc>Created with Fabric.js 5.3.0</desc>
<defs>
</defs>
<g transform="matrix(0.8322423258 0 0 1.3904127452 52.3939343623 87.2795863045)" id="PhOZav8fsEK8SbYETjijA"  >
<path style="stroke: rgb(47,79,79); stroke-width: 0; stroke-dasharray: none; stroke-linecap: butt; stroke-dashoffset: 0; stroke-linejoin: miter; stroke-miterlimit: 4; fill: rgb(255,255,255); fill-rule: nonzero; opacity: 1;" vector-effect="non-scaling-stroke"  transform=" translate(0, 0)" d="M -62.5 -62.5 L 62.5 -62.5 L 62.5 62.5 L -62.5 62.5 z" stroke-linecap="round" />
</g>
<g transform="matrix(1 0 0 1 143.102348443 88.8356354659)" id="UKiDaVU2v2qokH3jcoAri"  >
<path style="stroke: rgb(0,0,0); stroke-width: 1; stroke-dasharray: none; stroke-linecap: butt; stroke-dashoffset: 0; stroke-linejoin: miter; stroke-miterlimit: 4; fill: rgb(255,255,255); fill-opacity: 0; fill-rule: nonzero; opacity: 1;" vector-effect="non-scaling-stroke"  transform=" translate(0, 0)" d="M 0 0" stroke-linecap="round" />
</g>
<g transform="matrix(1 0 0 1 52.3939343362 52.3939343362)" id="zHInOCwlu3FiikUFBsPhU"  >
<path style="stroke: rgb(47,79,79); stroke-width: 1; stroke-dasharray: none; stroke-linecap: butt; stroke-dashoffset: 0; stroke-linejoin: miter; stroke-miterlimit: 4; fill: none; fill-rule: nonzero; opacity: 1;" vector-effect="non-scaling-stroke"  transform=" translate(-51.5151464574, -51.5151464574)" d="M 51.51515 0 C 79.95151 0 103.0303 23.07879 103.0303 51.51515 C 103.0303 79.95151 79.95151 103.0303 51.51515 103.0303 C 23.078789999999998 103.0303 0 79.95151 0 51.51515 C 0 23.078789999999998 23.07879 0 51.51515 0 z" stroke-linecap="round" />
</g>
<g transform="matrix(0.921120668 0 0 0.980294142 52.409808629 58.6542477533)" id="zLogiU9fAnYFAcOk8rcBi"  >
<path style="stroke: rgb(0,0,0); stroke-width: 0; stroke-dasharray: none; stroke-linecap: butt; stroke-dashoffset: 0; stroke-linejoin: miter; stroke-miterlimit: 4; fill: rgb(255,255,255); fill-rule: nonzero; opacity: 1;" vector-effect="non-scaling-stroke"  transform=" translate(0, 0)" d="M 0 -51.51515 C 28.43636 -51.51515 51.51515 -28.436359999999997 51.51515 0 C 51.51515 28.43636 28.436359999999997 51.51515 0 51.51515 C -28.43636 51.51515 -51.51515 28.436359999999997 -51.51515 0 C -51.51515 -28.43636 -28.436359999999997 -51.51515 0 -51.51515 z" stroke-linecap="round" />
</g>
<g transform="matrix(1 0 0 1 28.3467303128 110.0429724655)" id="P3lxP-n0YA5Ia069erB2F"  >
<path style="stroke: rgb(47,79,79); stroke-width: 1; stroke-dasharray: none; stroke-linecap: butt; stroke-dashoffset: 0; stroke-linejoin: miter; stroke-miterlimit: 4; fill: rgb(255,255,255); fill-opacity: 0; fill-rule: nonzero; opacity: 1;" vector-effect="non-scaling-stroke"  transform=" translate(0, 0)" d="M 20.57868 31.87979 L -20.57868 -31.879779999999997" stroke-linecap="round" />
</g>
<g transform="matrix(-1 0 0 1 73.5471615928 113.1285121725)" id="eUaVIG4k0dKCeGBpgFOnH"  >
<path style="stroke: rgb(47,79,79); stroke-width: 1; stroke-dasharray: none; stroke-linecap: butt; stroke-dashoffset: 0; stroke-linejoin: miter; stroke-miterlimit: 4; fill: rgb(255,255,255); fill-opacity: 0; fill-rule: nonzero; opacity: 1;" vector-effect="non-scaling-stroke"  transform=" translate(0, 0)" d="M 22.41444 33.22523 L -22.414430000000003 -33.22523" stroke-linecap="round" />
</g>
<g transform="matrix(1 0 0 1 50.6327262835 158.0826140787)" id="EiuDo0H6mkpiEcMYXk9M5"  >
<path style="stroke: rgb(47,79,79); stroke-width: 1; stroke-dasharray: none; stroke-linecap: butt; stroke-dashoffset: 0; stroke-linejoin: miter; stroke-miterlimit: 4; fill: rgb(255,255,255); fill-opacity: 0; fill-rule: nonzero; opacity: 1;" vector-effect="non-scaling-stroke"  transform=" translate(0, 0)" d="M 3.13689 -15.59777 L -3.13689 -6.29241 L 3.13689 3.04026 L 0 7.69294 L 0 15.59777" stroke-linecap="round" />
</g>
</svg>