<?xml version="1.0" encoding="UTF-8" standalone="no" ?>
<!DOCTYPE svg PUBLIC "-//W3C//DTD SVG 1.1//EN" "http://www.w3.org/Graphics/SVG/1.1/DTD/svg11.dtd">
<svg xmlns="http://www.w3.org/2000/svg" xmlns:xlink="http://www.w3.org/1999/xlink" version="1.1" width="50" height="100" viewBox="0 0 52 101" xml:space="preserve">
<desc>Created with Fabric.js 5.3.0</desc>
<defs>
</defs>
<g transform="matrix(1 0 0 1 13.3503559341 17.8288712442)" id="13PZMPyci25hgWWAa5ChL"  >
<path style="stroke: rgb(47,79,79); stroke-width: 1; stroke-dasharray: none; stroke-linecap: butt; stroke-dashoffset: 0; stroke-linejoin: miter; stroke-miterlimit: 4; fill: rgb(255,255,255); fill-opacity: 0; fill-rule: nonzero; opacity: 1;" vector-effect="non-scaling-stroke"  transform=" translate(0, 0)" d="M 0 0" stroke-linecap="round" />
</g>
<g transform="matrix(1 0 0 1 25.5777604977 20.6788491447)" id="765jghHuQow8MoJ5bZDUN"  >
<path style="stroke: rgb(47,79,79); stroke-width: 1; stroke-dasharray: none; stroke-linecap: butt; stroke-dashoffset: 0; stroke-linejoin: miter; stroke-miterlimit: 4; fill: rgb(255,255,255); fill-opacity: 0; fill-rule: nonzero; opacity: 1;" vector-effect="non-scaling-stroke"  transform=" translate(0, 0)" d="M -25 -20.10109 L -25 -4.765759999999998 C -25 8.967820000000001 -13.86673 20.10109 -0.13315000000000055 20.10109 L -0.13315000000000055 20.10109 L -0.13315000000000055 20.10109 C 13.74751 20.10109 25 8.84859 25 -5.032060000000001 L 25 -13.919120000000001 L 25 -20.101080000000003" stroke-linecap="round" />
</g>
<g transform="matrix(1 0 0 -1 26.0777604977 98.8777104846)" id="Bku9ZbM37Jg0_5_EZtKzv"  >
<path style="stroke: rgb(47,79,79); stroke-width: 1; stroke-dasharray: none; stroke-linecap: butt; stroke-dashoffset: 0; stroke-linejoin: miter; stroke-miterlimit: 4; fill: rgb(255,255,255); fill-opacity: 0; fill-rule: nonzero; opacity: 1;" vector-effect="non-scaling-stroke"  transform=" translate(0, 0)" d="M -25.5 -1.87221 L -5.48536 1.42359 C -1.8529200000000001 2.02174 1.8529099999999996 2.02174 5.48535 1.42359 L 25.49999 -1.87221" stroke-linecap="round" />
</g>
<g transform="matrix(1.0134935002 0 0 1.0134935002 25.5777604977 69.2889965917)" id="7bttfBtY6WMv29uhSxlej"  >
<path style="stroke: rgb(47,79,79); stroke-width: 1; stroke-dasharray: none; stroke-linecap: butt; stroke-dashoffset: 0; stroke-linejoin: miter; stroke-miterlimit: 4; fill: rgb(255,255,255); fill-opacity: 0; fill-rule: nonzero; opacity: 1;" vector-effect="non-scaling-stroke"  transform=" translate(0, 0)" d="M 0 -26.36081 L 0 26.36081" stroke-linecap="round" />
</g>
<g transform="matrix(1 0 0 1 25.5777604977 24.3589608728)" id="riUojGVebjulQnmNq5V_R"  >
<path style="stroke: rgb(47,79,79); stroke-width: 1; stroke-dasharray: none; stroke-linecap: butt; stroke-dashoffset: 0; stroke-linejoin: miter; stroke-miterlimit: 4; fill: rgb(255,255,255); fill-opacity: 0; fill-rule: nonzero; opacity: 1;" vector-effect="non-scaling-stroke"  transform=" translate(0, 0)" d="M -19.01408 0 L 19.014090000000003 0" stroke-linecap="round" />
</g>
</svg>
